1b. Matrix Multiplication and Centrality (R / igraph edition)
…
hits <- hits_scores(G_tw)
cc <- top_n_tbl(closeness(G_tw, mode = "all"),           names_tw, "closeness")
bc <- top_n_tbl(betweenness(G_tw, directed = TRUE),      names_tw, "betweenness")
pr <- top_n_tbl(page_rank(G_tw, directed = TRUE)$vector, names_tw, "pagerank")
hb <- top_n_tbl(hits$hub,                                names_tw, "hub_score")
ab <- top_n_tbl(hits$authority,                          names_tw, "authority_score")

list(cc, bc, pr, hb, ab) |>
  Reduce(\(a, b) full_join(a, b, by = "name"), x = _) |>
  arrange(desc(authority_score))

# A tibble: 32 x 6
   name          closeness betweenness pagerank hub_score authority_score
   <chr>             <dbl>       <dbl>    <dbl>     <dbl>           <dbl>
 1 LHDnets       NA                NA   0.0108      0.360           1    
 2 cosnet_bifi    0.000342         NA   0.00767     0.417           0.657
 3 netscisociety NA                NA   0.0101     NA               0.636
 4 uvmcomplexity NA                NA   0.00671    NA               0.602
 5 lordgrilo      0.000342      71013. NA           0.504           0.593
 6 _jgyou        NA                NA   0.00730     0.392           0.576
 7 fede7j         0.000342      62445. NA           0.527           0.574
 8 juniperlov    NA                NA  NA           0.387           0.553
 9 all_are       NA                NA  NA          NA               0.522
10 manlius84      0.000357     142397.  0.00717     0.850           0.508
# i 22 more rows
…
PPI: n = 964, m = 1202

names_ppi <- V(G_ppi)$name

cc_p <- top_n_tbl(degree(G_ppi),                    names_ppi, "degree")
bc_p <- top_n_tbl(betweenness(G_ppi),               names_ppi, "betweenness")
ec_p <- top_n_tbl(eigen_centrality(G_ppi)$vector,   names_ppi, "eigenvector")

list(cc_p, bc_p, ec_p) |>
  Reduce(\(a, b) full_join(a, b, by = "name"), x = _)

# A tibble: 27 x 4
   name    degree betweenness eigenvector
   <chr>    <dbl>       <dbl>       <dbl>
 1 YLR291C     68     128811.       1    
 2 YLR423C     48      49232.       0.307
 3 YIR038C     37      20740.      NA    
 4 YDR510W     32      56682.      NA    
 5 YBR261C     31      33427.       0.443
 6 YDR479C     29      20293.      NA    
 7 YML051W     23      21758.      NA    
 8 YPL070W     22         NA        0.419
 9 YDR100W     22      22096.      NA    
10 YPL094C     22         NA       NA    
# i 17 more rows
…
